{
    "api_key": "?",
    "customer": {
        "id": "?"
    },
    "installments": {
        "free_installments": "?",
        "max_installments": "?",
        "interest_rate": ?
    },
    "split_rules": [{
            "recipient_id": "?",
            "percentage": 85,
            "liable": true,
            "charge_processing_fee": true
        },
        {
            "recipient_id": "?",
            "percentage": 15,
            "liable": false,
            "charge_processing_fee": false
        }
    ]
}
